  0
SECTION
  2
HEADER
  9
$ACADVER
  1
AC1009
  9
$INSBASE
 10
0.0
 20
0.0
 30
0.0
  9
$EXTMIN
 10
0.0
 20
0.0
 30
0.0
  9
$EXTMAX
 10
0.0
 20
0.0
 30
0.0
  0
ENDSEC
  0
SECTION
  2
TABLES
  0
TABLE
  2
VPORT
 70
0
  0
ENDTAB
  0
TABLE
  2
LTYPE
 70
1
  0
LTYPE
  2
CONTINUOUS
 70
0
  3
Solid line
 72
65
 73
0
 40
0.0
  0
ENDTAB
  0
TABLE
  2
LAYER
 70
1
  0
LAYER
  2
0
 70
64
 62
7
  6
continuous
  0
ENDTAB
  0
TABLE
  2
STYLE
 70
1
  0
STYLE
  2
STANDARD
 70
0
 40
0
 41
1.0
 50
0.0
 71
0
 42
1
 3
ARIAL.TTF
 4

  0
ENDTAB
  0
TABLE
  2
VIEW
 70
0
  0
ENDTAB
  0
ENDSEC
  0
SECTION
  2
BLOCKS
  0
BLOCK
  8
0
  2
SCALE
 70
0
 10
0.0
 20
0.0
 30
0.0
  3
SCALE
  0
POLYLINE
  8
0
 62
0
 70
1
 66
1
 10
0.0
 20
0.0
 30
0.0
  0
VERTEX
  8
0
 10
-0.87092305
 20
-4.86282915
 30
0.0
  0
VERTEX
  8
0
 10
-0.87092305
 20
-2.66679575
 30
0.0
  0
VERTEX
  8
0
 10
-0.0964613
 20
-1.89323065
 30
0.0
  0
VERTEX
  8
0
 10
-0.0964613
 20
-4.43089225
 30
0.0
  0
VERTEX
  8
0
 10
0.73136885
 20
-5.25953965
 30
0.0
  0
VERTEX
  8
0
 10
1.76485925
 20
-5.25953965
 30
0.0
  0
VERTEX
  8
0
 10
2.50659075
 20
-4.5168986
 30
0.0
  0
VERTEX
  8
0
 10
2.50659075
 20
-2.8812184
 30
0.0
  0
VERTEX
  8
0
 10
2.7980936
 20
-2.59194915
 30
0.0
  0
VERTEX
  8
0
 10
4.2728708
 20
-2.59194915
 30
0.0
  0
VERTEX
  8
0
 10
4.37820665
 20
-2.6995133
 30
0.0
  0
VERTEX
  8
0
 10
2.86020545
 20
-2.6995133
 30
0.0
  0
VERTEX
  8
0
 10
2.61415485
 20
-2.94815835
 30
0.0
  0
VERTEX
  8
0
 10
2.61415485
 20
-4.56056255
 30
0.0
  0
VERTEX
  8
0
 10
1.70514415
 20
-5.4693846
 30
0.0
  0
VERTEX
  8
0
 10
0.79613345
 20
-6.37820665
 30
0.0
  0
VERTEX
  8
0
 10
0.64573125
 20
-6.37803455
 30
0.0
  0
SEQEND
  8
0
  0
POLYLINE
  8
0
 62
0
 70
1
 66
1
 10
0.0
 20
0.0
 30
0.0
  0
VERTEX
  8
0
 10
2.78625745
 20
-4.64622725
 30
0.0
  0
VERTEX
  8
0
 10
2.78625745
 20
-2.98762015
 30
0.0
  0
VERTEX
  8
0
 10
2.9281391
 20
-2.8501031
 30
0.0
  0
VERTEX
  8
0
 10
4.37820665
 20
-2.8501031
 30
0.0
  0
VERTEX
  8
0
 10
4.37820665
 20
-4.86177955
 30
0.0
  0
VERTEX
  8
0
 10
2.8613282
 20
-6.37820665
 30
0.0
  0
VERTEX
  8
0
 10
1.05467415
 20
-6.37820665
 30
0.0
  0
SEQEND
  8
0
  0
POLYLINE
  8
0
 62
0
 70
1
 66
1
 10
0.0
 20
0.0
 30
0.0
  0
VERTEX
  8
0
 10
0.65648765
 20
-4.42948165
 30
0.0
  0
VERTEX
  8
0
 10
0.65648765
 20
-1.12907695
 30
0.0
  0
VERTEX
  8
0
 10
2.84030415
 20
-1.12907695
 30
0.0
  0
VERTEX
  8
0
 10
4.1254008
 20
-2.4413594
 30
0.0
  0
VERTEX
  8
0
 10
2.73162565
 20
-2.4413594
 30
0.0
  0
VERTEX
  8
0
 10
2.3344881
 20
-2.8401551
 30
0.0
  0
VERTEX
  8
0
 10
2.3344881
 20
-4.45512495
 30
0.0
  0
VERTEX
  8
0
 10
2.1926065
 20
-4.59264205
 30
0.0
  0
VERTEX
  8
0
 10
0.8158095
 20
-4.59264205
 30
0.0
  0
SEQEND
  8
0
  0
ENDBLK
  0
ENDSEC
  0
SECTION
  2
ENTITIES
  0
INSERT
  2
SCALE
  8
0
 10
0.0
 20
0.0
 30
0.0
  0
ENDSEC
  0
EOF
