EESchema Schematic File Version 4
LIBS:kit_f103-cache
EELAYER 26 0
EELAYER END
$Descr A4 11693 8268
encoding utf-8
Sheet 1 1
Title "F103 EXPANSION BOARD"
Date "2019-03-10"
Rev "V1.1"
Comp "UFU/FEELT"
Comment1 "Kit didático STM32F103"
Comment2 "Marcelo Barros de Almeida"
Comment3 "marcelobarrosalmeida@gmail.com"
Comment4 ""
$EndDescr
$Comp
L Device:R R1
U 1 1 5C422037
P 8600 1100
F 0 "R1" H 8670 1146 50  0000 L CNN
F 1 "2k" V 8600 1050 50  0000 L CNN
F 2 "Resistor_SMD:R_1206_3216Metric" V 8530 1100 50  0001 C CNN
F 3 "AC1206FR-102KL" H 8600 1100 50  0001 C CNN
	1    8600 1100
	1    0    0    -1  
$EndComp
$Comp
L Device:R R2
U 1 1 5C422038
P 8850 1100
F 0 "R2" H 8920 1146 50  0000 L CNN
F 1 "2k" V 8850 1050 50  0000 L CNN
F 2 "Resistor_SMD:R_1206_3216Metric" V 8780 1100 50  0001 C CNN
F 3 "AC1206FR-102KL" H 8850 1100 50  0001 C CNN
	1    8850 1100
	1    0    0    -1  
$EndComp
$Comp
L power:+3.3V #PWR01
U 1 1 5C422039
P 8600 850
F 0 "#PWR01" H 8600 700 50  0001 C CNN
F 1 "+3.3V" H 8615 1023 50  0000 C CNN
F 2 "" H 8600 850 50  0001 C CNN
F 3 "" H 8600 850 50  0001 C CNN
	1    8600 850 
	1    0    0    -1  
$EndComp
Wire Wire Line
	8600 850  8600 900 
Wire Wire Line
	8600 900  8850 900 
Wire Wire Line
	8850 900  8850 950 
Connection ~ 8600 900 
Wire Wire Line
	8600 900  8600 950 
Wire Wire Line
	8600 1250 8600 1550
$Comp
L Memory_EEPROM:AT24CS01-SSHM U1
U 1 1 5C42203A
P 9550 1550
F 0 "U1" H 9350 1800 50  0000 C CNN
F 1 "AT24CS01-SSHM" H 9150 1900 50  0000 C CNN
F 2 "Package_SO:SOIC-8_3.9x4.9mm_P1.27mm" H 9550 1550 50  0001 C CNN
F 3 "AT24CS01-SSHM-B" H 9550 1550 50  0001 C CNN
	1    9550 1550
	-1   0    0    -1  
$EndComp
Wire Wire Line
	10050 1650 9950 1650
Wire Wire Line
	9950 1550 10050 1550
Connection ~ 10050 1550
Wire Wire Line
	10050 1550 10050 1650
Wire Wire Line
	9950 1450 10050 1450
Wire Wire Line
	10050 1450 10050 1550
Wire Wire Line
	9150 1650 9100 1650
Wire Wire Line
	9100 1650 9100 1900
Wire Wire Line
	9100 1900 9550 1900
Wire Wire Line
	9550 1900 9550 1850
$Comp
L power:GND #PWR010
U 1 1 5BA3D230
P 9550 1950
F 0 "#PWR010" H 9550 1700 50  0001 C CNN
F 1 "GND" V 9555 1822 50  0001 R CNN
F 2 "" H 9550 1950 50  0001 C CNN
F 3 "" H 9550 1950 50  0001 C CNN
	1    9550 1950
	1    0    0    -1  
$EndComp
Wire Wire Line
	9550 1900 9550 1950
Connection ~ 9550 1900
Wire Wire Line
	8850 1450 8300 1450
$Comp
L power:+3.3V #PWR08
U 1 1 5C422036
P 9550 1200
F 0 "#PWR08" H 9550 1050 50  0001 C CNN
F 1 "+3.3V" H 9565 1373 50  0000 C CNN
F 2 "" H 9550 1200 50  0001 C CNN
F 3 "" H 9550 1200 50  0001 C CNN
	1    9550 1200
	1    0    0    -1  
$EndComp
Wire Wire Line
	9550 1200 9550 1250
$Comp
L Memory_EEPROM:AT25xxx U4
U 1 1 5B6A018F
P 5450 4400
F 0 "U4" H 5600 4650 50  0000 C CNN
F 1 "CAT25080VI-GT3 " H 5850 4150 50  0000 C CNN
F 2 "Package_SO:SOIC-8_3.9x4.9mm_P1.27mm" H 5450 4400 50  0001 C CNN
F 3 "W25Q80DVSNIG" H 5450 4400 50  0001 C CNN
	1    5450 4400
	1    0    0    -1  
$EndComp
$Comp
L power:+3.3V #PWR023
U 1 1 5B7A56B1
P 4900 4000
F 0 "#PWR023" H 4900 3850 50  0001 C CNN
F 1 "+3.3V" H 4915 4173 50  0000 C CNN
F 2 "" H 4900 4000 50  0001 C CNN
F 3 "" H 4900 4000 50  0001 C CNN
	1    4900 4000
	1    0    0    -1  
$EndComp
$Comp
L power:GND #PWR026
U 1 1 5B7A5F2A
P 5450 4750
F 0 "#PWR026" H 5450 4500 50  0001 C CNN
F 1 "GND" H 5455 4577 50  0001 C CNN
F 2 "" H 5450 4750 50  0001 C CNN
F 3 "" H 5450 4750 50  0001 C CNN
	1    5450 4750
	1    0    0    -1  
$EndComp
Wire Wire Line
	5450 4750 5450 4700
Wire Wire Line
	5850 4500 6100 4500
Text GLabel 2750 6950 2    50   Input ~ 0
SW1
Text GLabel 2750 7050 2    50   Input ~ 0
SW2
Text GLabel 2750 6850 2    50   Input ~ 0
SW0
Text GLabel 2750 7150 2    50   Input ~ 0
SW3
Text GLabel 2750 7250 2    50   Input ~ 0
SW4
$Comp
L Switch:SW_SPST SW1
U 1 1 5B63BB4D
P 1600 6350
F 0 "SW1" H 1600 6585 50  0000 C CNN
F 1 "SW_UP" H 1600 6494 50  0000 C CNN
F 2 "Button_Switch_SMD:SW_SPST_EVQQ2" H 1600 6350 50  0001 C CNN
F 3 "EVQ-Q2F01W" H 1600 6350 50  0001 C CNN
	1    1600 6350
	1    0    0    -1  
$EndComp
$Comp
L Switch:SW_SPST SW5
U 1 1 5B63BC7E
P 1600 7250
F 0 "SW5" H 1600 7150 50  0000 C CNN
F 1 "SW_DOWN" H 1600 7050 50  0000 C CNN
F 2 "Button_Switch_SMD:SW_SPST_EVQQ2" H 1600 7250 50  0001 C CNN
F 3 "EVQ-Q2F01W" H 1600 7250 50  0001 C CNN
	1    1600 7250
	1    0    0    -1  
$EndComp
$Comp
L Switch:SW_SPST SW3
U 1 1 5B63BCF5
P 1600 6800
F 0 "SW3" H 1600 7035 50  0000 C CNN
F 1 "SW_ENTER" H 1600 6944 50  0000 C CNN
F 2 "Button_Switch_SMD:SW_SPST_EVQQ2" H 1600 6800 50  0001 C CNN
F 3 "EVQ-Q2F01W" H 1600 6800 50  0001 C CNN
	1    1600 6800
	1    0    0    -1  
$EndComp
$Comp
L Switch:SW_SPST SW2
U 1 1 5B63BD7B
P 950 6800
F 0 "SW2" H 950 7035 50  0000 C CNN
F 1 "SW_LEFT" H 950 6944 50  0000 C CNN
F 2 "Button_Switch_SMD:SW_SPST_EVQQ2" H 950 6800 50  0001 C CNN
F 3 "EVQ-Q2F01W" H 950 6800 50  0001 C CNN
	1    950  6800
	1    0    0    -1  
$EndComp
$Comp
L Switch:SW_SPST SW4
U 1 1 5B63BDCD
P 2250 6800
F 0 "SW4" H 2250 7035 50  0000 C CNN
F 1 "SW_RIGHT" H 2250 6944 50  0000 C CNN
F 2 "Button_Switch_SMD:SW_SPST_EVQQ2" H 2250 6800 50  0001 C CNN
F 3 "EVQ-Q2F01W" H 2250 6800 50  0001 C CNN
	1    2250 6800
	1    0    0    -1  
$EndComp
Wire Wire Line
	1800 6800 1900 6800
Wire Wire Line
	1900 6800 1900 7050
Wire Wire Line
	1900 7050 2750 7050
Wire Wire Line
	2750 6950 2550 6950
Wire Wire Line
	2550 6950 2550 6800
Wire Wire Line
	2550 6800 2450 6800
Wire Wire Line
	2750 6850 2650 6850
Wire Wire Line
	2650 6850 2650 6500
Wire Wire Line
	1150 6800 1250 6800
Wire Wire Line
	1250 6800 1250 7050
Wire Wire Line
	1800 7250 2750 7250
$Comp
L power:GND #PWR027
U 1 1 5B6403D1
P 1350 6400
F 0 "#PWR027" H 1350 6150 50  0001 C CNN
F 1 "GND" H 1355 6227 50  0001 C CNN
F 2 "" H 1350 6400 50  0001 C CNN
F 3 "" H 1350 6400 50  0001 C CNN
	1    1350 6400
	1    0    0    -1  
$EndComp
$Comp
L power:GND #PWR028
U 1 1 5B6403F0
P 700 6850
F 0 "#PWR028" H 700 6600 50  0001 C CNN
F 1 "GND" H 705 6677 50  0001 C CNN
F 2 "" H 700 6850 50  0001 C CNN
F 3 "" H 700 6850 50  0001 C CNN
	1    700  6850
	1    0    0    -1  
$EndComp
$Comp
L power:GND #PWR031
U 1 1 5B64040F
P 1350 7300
F 0 "#PWR031" H 1350 7050 50  0001 C CNN
F 1 "GND" H 1355 7127 50  0001 C CNN
F 2 "" H 1350 7300 50  0001 C CNN
F 3 "" H 1350 7300 50  0001 C CNN
	1    1350 7300
	1    0    0    -1  
$EndComp
$Comp
L power:GND #PWR029
U 1 1 5B64042E
P 1350 6850
F 0 "#PWR029" H 1350 6600 50  0001 C CNN
F 1 "GND" H 1355 6677 50  0001 C CNN
F 2 "" H 1350 6850 50  0001 C CNN
F 3 "" H 1350 6850 50  0001 C CNN
	1    1350 6850
	1    0    0    -1  
$EndComp
$Comp
L power:GND #PWR030
U 1 1 5B64044D
P 2000 6850
F 0 "#PWR030" H 2000 6600 50  0001 C CNN
F 1 "GND" H 2005 6677 50  0001 C CNN
F 2 "" H 2000 6850 50  0001 C CNN
F 3 "" H 2000 6850 50  0001 C CNN
	1    2000 6850
	1    0    0    -1  
$EndComp
Wire Wire Line
	1400 6800 1350 6800
Wire Wire Line
	1350 6800 1350 6850
Wire Wire Line
	1350 6400 1350 6350
Wire Wire Line
	1350 6350 1400 6350
Wire Wire Line
	750  6800 700  6800
Wire Wire Line
	700  6800 700  6850
Wire Wire Line
	1400 7250 1350 7250
Wire Wire Line
	1350 7250 1350 7300
Wire Wire Line
	2050 6800 2000 6800
Wire Wire Line
	2000 6800 2000 6850
Wire Wire Line
	1250 7050 1750 7050
Wire Wire Line
	1750 7050 1750 7150
Wire Wire Line
	1750 7150 2750 7150
Wire Wire Line
	2000 6350 2000 6500
Wire Wire Line
	2000 6500 2650 6500
Wire Wire Line
	2000 6350 1800 6350
Text Notes 2100 7450 0    50   ~ 0
Turn pull up on these lines
$Comp
L Device:Thermistor_NTC TH1
U 1 1 5B800096
P 2100 3900
F 0 "TH1" H 2198 3946 50  0000 L CNN
F 1 "Thermistor_NTC" H 2198 3855 50  0000 L CNN
F 2 "Resistor_THT:R_Axial_DIN0411_L9.9mm_D3.6mm_P12.70mm_Horizontal" H 2100 3950 50  0001 C CNN
F 3 "NK103C1R1" H 2100 3950 50  0001 C CNN
	1    2100 3900
	1    0    0    -1  
$EndComp
$Comp
L Device:R R3
U 1 1 5B800EA1
P 2100 4300
F 0 "R3" H 2170 4346 50  0000 L CNN
F 1 "10k" V 2100 4250 50  0000 L CNN
F 2 "Resistor_SMD:R_1206_3216Metric" V 2030 4300 50  0001 C CNN
F 3 "AC1206FR-1010KL" H 2100 4300 50  0001 C CNN
	1    2100 4300
	1    0    0    -1  
$EndComp
$Comp
L power:GND #PWR024
U 1 1 5B800F37
P 2100 4550
F 0 "#PWR024" H 2100 4300 50  0001 C CNN
F 1 "GND" H 2105 4377 50  0001 C CNN
F 2 "" H 2100 4550 50  0001 C CNN
F 3 "" H 2100 4550 50  0001 C CNN
	1    2100 4550
	1    0    0    -1  
$EndComp
$Comp
L power:+3.3V #PWR020
U 1 1 5B800F78
P 2100 3650
F 0 "#PWR020" H 2100 3500 50  0001 C CNN
F 1 "+3.3V" H 2115 3823 50  0000 C CNN
F 2 "" H 2100 3650 50  0001 C CNN
F 3 "" H 2100 3650 50  0001 C CNN
	1    2100 3650
	1    0    0    -1  
$EndComp
Wire Wire Line
	2100 3650 2100 3750
Wire Wire Line
	2100 4450 2100 4550
$Comp
L Device:R_POT RV1
U 1 1 5B808EA7
P 1550 4150
F 0 "RV1" H 1480 4196 50  0000 R CNN
F 1 "1k" H 1480 4105 50  0000 R CNN
F 2 "Connector_PinHeader_2.54mm:PinHeader_1x03_P2.54mm_Vertical" H 1550 4150 50  0001 C CNN
F 3 "3296Y-11-103LF" H 1550 4150 50  0001 C CNN
	1    1550 4150
	1    0    0    -1  
$EndComp
$Comp
L power:+3.3V #PWR021
U 1 1 5B808FEF
P 1550 3700
F 0 "#PWR021" H 1550 3550 50  0001 C CNN
F 1 "+3.3V" H 1565 3873 50  0000 C CNN
F 2 "" H 1550 3700 50  0001 C CNN
F 3 "" H 1550 3700 50  0001 C CNN
	1    1550 3700
	1    0    0    -1  
$EndComp
$Comp
L power:GND #PWR025
U 1 1 5B809020
P 1550 4600
F 0 "#PWR025" H 1550 4350 50  0001 C CNN
F 1 "GND" H 1555 4427 50  0001 C CNN
F 2 "" H 1550 4600 50  0001 C CNN
F 3 "" H 1550 4600 50  0001 C CNN
	1    1550 4600
	1    0    0    -1  
$EndComp
Wire Wire Line
	1550 4600 1550 4300
Wire Wire Line
	1550 4000 1550 3700
Wire Wire Line
	1700 4150 1800 4150
Wire Wire Line
	2100 4050 2100 4100
Wire Wire Line
	2750 4650 2500 4650
Wire Wire Line
	2500 4650 2500 4100
Wire Wire Line
	2500 4100 2100 4100
Connection ~ 2100 4100
Wire Wire Line
	2100 4100 2100 4150
Wire Wire Line
	2750 4750 1800 4750
Wire Wire Line
	1800 4150 1800 4750
Text GLabel 2750 4750 2    50   Input ~ 0
ADC0
Text GLabel 2750 4650 2    50   Input ~ 0
ADC1
Text GLabel 6100 4500 2    50   Input ~ 0
SPI2_MISO
Text GLabel 6100 4400 2    50   Input ~ 0
SPI2_MOSI
Text GLabel 6100 4300 2    50   Input ~ 0
SPI2_SCK
Text GLabel 4850 4500 0    50   Input ~ 0
SPI2_CS
Wire Wire Line
	5050 4500 4850 4500
Wire Wire Line
	5850 4400 6100 4400
Wire Wire Line
	5850 4300 6100 4300
Wire Wire Line
	8850 1450 9150 1450
Text GLabel 8300 1450 0    50   Input ~ 0
SDA
Text GLabel 8300 1550 0    50   Input ~ 0
SCL
$Comp
L Interface_Expansion:TCA9534 U3
U 1 1 5BA3E675
P 9550 3150
F 0 "U3" H 9700 3700 50  0000 C CNN
F 1 "TCA9534DW" H 9750 2500 50  0000 C CNN
F 2 "Package_SO:SOIC-16W_7.5x10.3mm_P1.27mm" H 10500 2600 50  0001 C CNN
F 3 "TCA9534DWR" H 9650 3050 50  0001 C CNN
	1    9550 3150
	1    0    0    -1  
$EndComp
Wire Wire Line
	9150 3350 9050 3350
Wire Wire Line
	9050 3350 9050 3450
Wire Wire Line
	9050 3900 9550 3900
Wire Wire Line
	9550 3900 9550 3850
$Comp
L power:GND #PWR022
U 1 1 5BA42096
P 9550 3950
F 0 "#PWR022" H 9550 3700 50  0001 C CNN
F 1 "GND" V 9555 3822 50  0001 R CNN
F 2 "" H 9550 3950 50  0001 C CNN
F 3 "" H 9550 3950 50  0001 C CNN
	1    9550 3950
	1    0    0    -1  
$EndComp
Wire Wire Line
	9550 3950 9550 3900
Connection ~ 9550 3900
Wire Wire Line
	9150 3450 9050 3450
Connection ~ 9050 3450
Wire Wire Line
	9050 3450 9050 3550
Wire Wire Line
	9150 3550 9050 3550
Connection ~ 9050 3550
Wire Wire Line
	9050 3550 9050 3900
$Comp
L power:+3.3V #PWR011
U 1 1 5BA44022
P 9550 2500
F 0 "#PWR011" H 9550 2350 50  0001 C CNN
F 1 "+3.3V" H 9565 2673 50  0000 C CNN
F 2 "" H 9550 2500 50  0001 C CNN
F 3 "" H 9550 2500 50  0001 C CNN
	1    9550 2500
	1    0    0    -1  
$EndComp
Wire Wire Line
	9550 2500 9550 2550
$Comp
L Connector_Generic:Conn_01x08 J3
U 1 1 5C44235F
P 10250 3150
F 0 "J3" H 10330 3142 50  0000 L CNN
F 1 "Conn_01x08" H 10000 2600 50  0000 L CNN
F 2 "Connector_PinHeader_2.54mm:PinHeader_1x08_P2.54mm_Vertical" H 10250 3150 50  0001 C CNN
F 3 "XG8V-0831" H 10250 3150 50  0001 C CNN
	1    10250 3150
	1    0    0    -1  
$EndComp
Wire Wire Line
	10050 2850 9950 2850
Wire Wire Line
	9950 2950 10050 2950
Wire Wire Line
	10050 3050 9950 3050
Wire Wire Line
	9950 3150 10050 3150
Wire Wire Line
	10050 3250 9950 3250
Wire Wire Line
	9950 3350 10050 3350
Wire Wire Line
	10050 3450 9950 3450
Wire Wire Line
	9950 3550 10050 3550
Text GLabel 8900 3050 0    50   Input ~ 0
IOX_INT
Wire Wire Line
	8900 3050 9150 3050
$Comp
L Device:LED_ALT D1
U 1 1 5C495DD9
P 4100 6750
F 0 "D1" V 4200 6700 50  0000 R CNN
F 1 "LED" V 4200 6900 50  0000 R CNN
F 2 "LED_SMD:LED_1206_3216Metric" H 4100 6750 50  0001 C CNN
F 3 "APTD3216LCGCK" H 4100 6750 50  0001 C CNN
	1    4100 6750
	0    -1   -1   0   
$EndComp
$Comp
L Device:R R6
U 1 1 5C495E97
P 4100 7150
F 0 "R6" V 4200 7100 50  0000 L CNN
F 1 "330R" V 4000 7050 50  0000 L CNN
F 2 "Resistor_SMD:R_1206_3216Metric" V 4030 7150 50  0001 C CNN
F 3 "AC1206FR-10390RL" H 4100 7150 50  0001 C CNN
	1    4100 7150
	1    0    0    -1  
$EndComp
Wire Wire Line
	4100 7000 4100 6950
$Comp
L power:GND #PWR032
U 1 1 5C4997CD
P 4100 7400
F 0 "#PWR032" H 4100 7150 50  0001 C CNN
F 1 "GND" H 4105 7227 50  0001 C CNN
F 2 "" H 4100 7400 50  0001 C CNN
F 3 "" H 4100 7400 50  0001 C CNN
	1    4100 7400
	1    0    0    -1  
$EndComp
Wire Wire Line
	4100 7400 4100 7300
Wire Wire Line
	4100 6600 4100 6450
Text GLabel 5700 6450 1    50   Input ~ 0
LED0
$Comp
L Device:LED_ALT D2
U 1 1 5C4B74D6
P 4900 6750
F 0 "D2" V 5000 6700 50  0000 R CNN
F 1 "LED" V 5000 6900 50  0000 R CNN
F 2 "LED_SMD:LED_1206_3216Metric" H 4900 6750 50  0001 C CNN
F 3 "APTD3216LCGCK" H 4900 6750 50  0001 C CNN
	1    4900 6750
	0    -1   -1   0   
$EndComp
$Comp
L Device:R R7
U 1 1 5C4B74DC
P 4900 7150
F 0 "R7" V 5000 7100 50  0000 L CNN
F 1 "330R" V 4800 7050 50  0000 L CNN
F 2 "Resistor_SMD:R_1206_3216Metric" V 4830 7150 50  0001 C CNN
F 3 "AC1206FR-10390RL" H 4900 7150 50  0001 C CNN
	1    4900 7150
	1    0    0    -1  
$EndComp
Wire Wire Line
	4900 7000 4900 6950
$Comp
L power:GND #PWR033
U 1 1 5C4B74E3
P 4900 7400
F 0 "#PWR033" H 4900 7150 50  0001 C CNN
F 1 "GND" H 4905 7227 50  0001 C CNN
F 2 "" H 4900 7400 50  0001 C CNN
F 3 "" H 4900 7400 50  0001 C CNN
	1    4900 7400
	1    0    0    -1  
$EndComp
Wire Wire Line
	4900 7400 4900 7300
Wire Wire Line
	4900 6600 4900 6450
Text GLabel 6500 6450 1    50   Input ~ 0
LED1
$Comp
L Device:LED_ALT D3
U 1 1 5C4BB3A9
P 5700 6750
F 0 "D3" V 5800 6700 50  0000 R CNN
F 1 "LED" V 5800 6900 50  0000 R CNN
F 2 "LED_SMD:LED_1206_3216Metric" H 5700 6750 50  0001 C CNN
F 3 "APTD3216LCGCK" H 5700 6750 50  0001 C CNN
	1    5700 6750
	0    -1   -1   0   
$EndComp
$Comp
L Device:R R8
U 1 1 5C4BB3AF
P 5700 7150
F 0 "R8" V 5800 7100 50  0000 L CNN
F 1 "330R" V 5600 7050 50  0000 L CNN
F 2 "Resistor_SMD:R_1206_3216Metric" V 5630 7150 50  0001 C CNN
F 3 "AC1206FR-10390RL" H 5700 7150 50  0001 C CNN
	1    5700 7150
	1    0    0    -1  
$EndComp
Wire Wire Line
	5700 7000 5700 6950
$Comp
L power:GND #PWR034
U 1 1 5C4BB3B6
P 5700 7400
F 0 "#PWR034" H 5700 7150 50  0001 C CNN
F 1 "GND" H 5705 7227 50  0001 C CNN
F 2 "" H 5700 7400 50  0001 C CNN
F 3 "" H 5700 7400 50  0001 C CNN
	1    5700 7400
	1    0    0    -1  
$EndComp
Wire Wire Line
	5700 7400 5700 7300
Wire Wire Line
	5700 6600 5700 6450
Text GLabel 4100 6450 1    50   Input ~ 0
LED2
$Comp
L Device:LED_ALT D4
U 1 1 5C4BB3BF
P 6500 6750
F 0 "D4" V 6600 6700 50  0000 R CNN
F 1 "LED" V 6600 6900 50  0000 R CNN
F 2 "LED_SMD:LED_1206_3216Metric" H 6500 6750 50  0001 C CNN
F 3 "APTD3216LSURCK" H 6500 6750 50  0001 C CNN
	1    6500 6750
	0    -1   -1   0   
$EndComp
$Comp
L Device:R R9
U 1 1 5C4BB3C5
P 6500 7150
F 0 "R9" V 6600 7100 50  0000 L CNN
F 1 "330R" V 6400 7050 50  0000 L CNN
F 2 "Resistor_SMD:R_1206_3216Metric" V 6430 7150 50  0001 C CNN
F 3 "AC1206FR-10390RL" H 6500 7150 50  0001 C CNN
	1    6500 7150
	1    0    0    -1  
$EndComp
Wire Wire Line
	6500 7000 6500 6950
$Comp
L power:GND #PWR035
U 1 1 5C4BB3CC
P 6500 7400
F 0 "#PWR035" H 6500 7150 50  0001 C CNN
F 1 "GND" H 6505 7227 50  0001 C CNN
F 2 "" H 6500 7400 50  0001 C CNN
F 3 "" H 6500 7400 50  0001 C CNN
	1    6500 7400
	1    0    0    -1  
$EndComp
Wire Wire Line
	6500 7400 6500 7300
Wire Wire Line
	6500 6600 6500 6450
Text GLabel 4900 6450 1    50   Input ~ 0
LED3
$Comp
L Connector_Generic:Conn_01x20 J1
U 1 1 5C560C71
P 5300 1750
F 0 "J1" H 5380 1742 50  0000 L CNN
F 1 "Conn_01x20" V 5400 1950 50  0000 L CNN
F 2 "Connector_PinHeader_2.54mm:PinHeader_1x20_P2.54mm_Vertical" H 5300 1750 50  0001 C CNN
F 3 "M20-7822046 ou 801-87-020-10-001101" H 5300 1750 50  0001 C CNN
	1    5300 1750
	1    0    0    -1  
$EndComp
Text GLabel 5000 850  0    50   Input ~ 0
SPI2_CS
Text GLabel 5000 1050 0    50   Input ~ 0
SPI2_MISO
Text GLabel 5000 1150 0    50   Input ~ 0
SPI2_MOSI
Text GLabel 5000 950  0    50   Input ~ 0
SPI2_SCK
Text GLabel 5000 2250 0    50   Input ~ 0
SDA
Text GLabel 5000 2150 0    50   Input ~ 0
SCL
Text GLabel 5000 1250 0    50   Input ~ 0
IOX_INT
Text GLabel 5000 1750 0    50   Input ~ 0
LED0
Text GLabel 5000 1850 0    50   Input ~ 0
LED1
Text GLabel 5000 1350 0    50   Input ~ 0
PA9
Text GLabel 5000 1450 0    50   Input ~ 0
PA10
Text GLabel 5000 1550 0    50   Input ~ 0
PA11
Text GLabel 5000 1650 0    50   Input ~ 0
PA12
Text GLabel 5000 1950 0    50   Input ~ 0
B4
Text GLabel 5000 2050 0    50   Input ~ 0
B5
Text GLabel 5000 2350 0    50   Input ~ 0
B8
Text GLabel 5000 2450 0    50   Input ~ 0
B9
$Comp
L power:GND #PWR015
U 1 1 5C57598B
P 5000 2650
F 0 "#PWR015" H 5000 2400 50  0001 C CNN
F 1 "GND" V 5005 2522 50  0000 R CNN
F 2 "" H 5000 2650 50  0001 C CNN
F 3 "" H 5000 2650 50  0001 C CNN
	1    5000 2650
	0    1    1    0   
$EndComp
$Comp
L power:+3V3 #PWR018
U 1 1 5C575991
P 5000 2750
F 0 "#PWR018" H 5000 2600 50  0001 C CNN
F 1 "+3V3" V 5015 2878 50  0000 L CNN
F 2 "" H 5000 2750 50  0001 C CNN
F 3 "" H 5000 2750 50  0001 C CNN
	1    5000 2750
	0    -1   -1   0   
$EndComp
$Comp
L power:+5V #PWR013
U 1 1 5C575997
P 5000 2550
F 0 "#PWR013" H 5000 2400 50  0001 C CNN
F 1 "+5V" V 5015 2678 50  0000 L CNN
F 2 "" H 5000 2550 50  0001 C CNN
F 3 "" H 5000 2550 50  0001 C CNN
	1    5000 2550
	0    -1   -1   0   
$EndComp
$Comp
L Connector_Generic:Conn_01x20 J2
U 1 1 5C57C6EE
P 5950 1750
F 0 "J2" H 6030 1742 50  0000 L CNN
F 1 "Conn_01x20" V 6050 1950 50  0000 L CNN
F 2 "Connector_PinHeader_2.54mm:PinHeader_1x20_P2.54mm_Vertical" H 5950 1750 50  0001 C CNN
F 3 "M20-7822046 ou 801-87-020-10-001101" H 5950 1750 50  0001 C CNN
	1    5950 1750
	-1   0    0    -1  
$EndComp
Text GLabel 6250 2250 2    50   Input ~ 0
SW1
Text GLabel 6250 2150 2    50   Input ~ 0
SW2
Text GLabel 6250 2350 2    50   Input ~ 0
SW0
Text GLabel 6250 2050 2    50   Input ~ 0
SW3
Text GLabel 6250 1950 2    50   Input ~ 0
SW4
Text GLabel 6250 1450 2    50   Input ~ 0
ADC0
Text GLabel 6250 1550 2    50   Input ~ 0
ADC1
Text GLabel 6250 1250 2    50   Input ~ 0
LED2
Text GLabel 6250 1350 2    50   Input ~ 0
LED3
$Comp
L power:GND #PWR03
U 1 1 5C57C8E9
P 6250 850
F 0 "#PWR03" H 6250 600 50  0001 C CNN
F 1 "GND" V 6255 722 50  0000 R CNN
F 2 "" H 6250 850 50  0001 C CNN
F 3 "" H 6250 850 50  0001 C CNN
	1    6250 850 
	0    -1   -1   0   
$EndComp
$Comp
L power:GND #PWR05
U 1 1 5C57C8EF
P 6250 950
F 0 "#PWR05" H 6250 700 50  0001 C CNN
F 1 "GND" V 6255 822 50  0000 R CNN
F 2 "" H 6250 950 50  0001 C CNN
F 3 "" H 6250 950 50  0001 C CNN
	1    6250 950 
	0    -1   -1   0   
$EndComp
$Comp
L power:+3V3 #PWR07
U 1 1 5C57C8F5
P 6250 1050
F 0 "#PWR07" H 6250 900 50  0001 C CNN
F 1 "+3V3" V 6265 1178 50  0000 L CNN
F 2 "" H 6250 1050 50  0001 C CNN
F 3 "" H 6250 1050 50  0001 C CNN
	1    6250 1050
	0    1    1    0   
$EndComp
Text GLabel 6250 1150 2    50   Input ~ 0
RST
Text GLabel 6250 1650 2    50   Input ~ 0
A7
Text GLabel 6250 1750 2    50   Input ~ 0
A6
Text GLabel 6250 1850 2    50   Input ~ 0
A5
Text GLabel 6250 2450 2    50   Input ~ 0
C15
Text GLabel 6250 2550 2    50   Input ~ 0
C14
Text GLabel 6250 2650 2    50   Input ~ 0
C13
Wire Wire Line
	5000 850  5100 850 
Wire Wire Line
	5100 950  5000 950 
Wire Wire Line
	5000 1050 5100 1050
Wire Wire Line
	5100 1150 5000 1150
Wire Wire Line
	5000 1250 5100 1250
Wire Wire Line
	5100 1350 5000 1350
Wire Wire Line
	5000 1450 5100 1450
Wire Wire Line
	5100 1550 5000 1550
Wire Wire Line
	5000 1650 5100 1650
Wire Wire Line
	5100 1750 5000 1750
Wire Wire Line
	5000 1850 5100 1850
Wire Wire Line
	5100 1950 5000 1950
Wire Wire Line
	5000 2050 5100 2050
Wire Wire Line
	5100 2150 5000 2150
Wire Wire Line
	5000 2250 5100 2250
Wire Wire Line
	5100 2350 5000 2350
Wire Wire Line
	5000 2450 5100 2450
Wire Wire Line
	5100 2550 5000 2550
Wire Wire Line
	5000 2650 5100 2650
Wire Wire Line
	5100 2750 5000 2750
Wire Wire Line
	6150 2750 6250 2750
Wire Wire Line
	6250 2650 6150 2650
Wire Wire Line
	6150 2550 6250 2550
Wire Wire Line
	6250 2450 6150 2450
Wire Wire Line
	6150 2350 6250 2350
Wire Wire Line
	6250 2250 6150 2250
Wire Wire Line
	6150 2150 6250 2150
Wire Wire Line
	6250 2050 6150 2050
Wire Wire Line
	6150 1950 6250 1950
Wire Wire Line
	6250 1850 6150 1850
Wire Wire Line
	6150 1750 6250 1750
Wire Wire Line
	6250 1650 6150 1650
Wire Wire Line
	6150 1550 6250 1550
Wire Wire Line
	6250 1450 6150 1450
Wire Wire Line
	6150 1350 6250 1350
Wire Wire Line
	6250 1250 6150 1250
Wire Wire Line
	6150 1150 6250 1150
Wire Wire Line
	6250 1050 6150 1050
Wire Wire Line
	6150 950  6250 950 
Wire Wire Line
	6250 850  6150 850 
$Comp
L Connector_Generic:Conn_01x20 J4
U 1 1 5C7AE3DA
P 2150 1750
F 0 "J4" H 2230 1742 50  0000 L CNN
F 1 "Conn_01x20" V 2250 1950 50  0000 L CNN
F 2 "Connector_PinHeader_2.54mm:PinHeader_1x20_P2.54mm_Vertical" H 2150 1750 50  0001 C CNN
F 3 "2 x 67997-410HLF" H 2150 1750 50  0001 C CNN
	1    2150 1750
	1    0    0    -1  
$EndComp
Text GLabel 1850 850  0    50   Input ~ 0
SPI2_CS
Text GLabel 1850 1050 0    50   Input ~ 0
SPI2_MISO
Text GLabel 1850 1150 0    50   Input ~ 0
SPI2_MOSI
Text GLabel 1850 950  0    50   Input ~ 0
SPI2_SCK
Text GLabel 1850 2250 0    50   Input ~ 0
SDA
Text GLabel 1850 2150 0    50   Input ~ 0
SCL
Text GLabel 1850 1250 0    50   Input ~ 0
IOX_INT
Text GLabel 1850 1750 0    50   Input ~ 0
LED0
Text GLabel 1850 1850 0    50   Input ~ 0
LED1
Text GLabel 1850 1350 0    50   Input ~ 0
PA9
Text GLabel 1850 1450 0    50   Input ~ 0
PA10
Text GLabel 1850 1550 0    50   Input ~ 0
PA11
Text GLabel 1850 1650 0    50   Input ~ 0
PA12
Text GLabel 1850 1950 0    50   Input ~ 0
B4
Text GLabel 1850 2050 0    50   Input ~ 0
B5
Text GLabel 1850 2350 0    50   Input ~ 0
B8
Text GLabel 1850 2450 0    50   Input ~ 0
B9
$Comp
L power:GND #PWR014
U 1 1 5C7AE3F1
P 1850 2650
F 0 "#PWR014" H 1850 2400 50  0001 C CNN
F 1 "GND" V 1855 2522 50  0000 R CNN
F 2 "" H 1850 2650 50  0001 C CNN
F 3 "" H 1850 2650 50  0001 C CNN
	1    1850 2650
	0    1    1    0   
$EndComp
$Comp
L power:+3V3 #PWR016
U 1 1 5C7AE3F7
P 1850 2750
F 0 "#PWR016" H 1850 2600 50  0001 C CNN
F 1 "+3V3" V 1865 2878 50  0000 L CNN
F 2 "" H 1850 2750 50  0001 C CNN
F 3 "" H 1850 2750 50  0001 C CNN
	1    1850 2750
	0    -1   -1   0   
$EndComp
$Comp
L power:+5V #PWR012
U 1 1 5C7AE3FD
P 1850 2550
F 0 "#PWR012" H 1850 2400 50  0001 C CNN
F 1 "+5V" V 1865 2678 50  0000 L CNN
F 2 "" H 1850 2550 50  0001 C CNN
F 3 "" H 1850 2550 50  0001 C CNN
	1    1850 2550
	0    -1   -1   0   
$EndComp
$Comp
L Connector_Generic:Conn_01x20 J5
U 1 1 5C7AE403
P 2800 1750
F 0 "J5" H 2880 1742 50  0000 L CNN
F 1 "Conn_01x20" V 2900 1950 50  0000 L CNN
F 2 "Connector_PinHeader_2.54mm:PinHeader_1x20_P2.54mm_Vertical" H 2800 1750 50  0001 C CNN
F 3 "2 x 67997-410HLF" H 2800 1750 50  0001 C CNN
	1    2800 1750
	-1   0    0    -1  
$EndComp
Text GLabel 3100 2250 2    50   Input ~ 0
SW1
Text GLabel 3100 2150 2    50   Input ~ 0
SW2
Text GLabel 3100 2350 2    50   Input ~ 0
SW0
Text GLabel 3100 2050 2    50   Input ~ 0
SW3
Text GLabel 3100 1950 2    50   Input ~ 0
SW4
Text GLabel 3100 1450 2    50   Input ~ 0
ADC0
Text GLabel 3100 1550 2    50   Input ~ 0
ADC1
Text GLabel 3100 1250 2    50   Input ~ 0
LED2
Text GLabel 3100 1350 2    50   Input ~ 0
LED3
$Comp
L power:GND #PWR02
U 1 1 5C7AE412
P 3100 850
F 0 "#PWR02" H 3100 600 50  0001 C CNN
F 1 "GND" V 3105 722 50  0000 R CNN
F 2 "" H 3100 850 50  0001 C CNN
F 3 "" H 3100 850 50  0001 C CNN
	1    3100 850 
	0    -1   -1   0   
$EndComp
$Comp
L power:GND #PWR04
U 1 1 5C7AE418
P 3100 950
F 0 "#PWR04" H 3100 700 50  0001 C CNN
F 1 "GND" V 3105 822 50  0000 R CNN
F 2 "" H 3100 950 50  0001 C CNN
F 3 "" H 3100 950 50  0001 C CNN
	1    3100 950 
	0    -1   -1   0   
$EndComp
$Comp
L power:+3V3 #PWR06
U 1 1 5C7AE41E
P 3100 1050
F 0 "#PWR06" H 3100 900 50  0001 C CNN
F 1 "+3V3" V 3115 1178 50  0000 L CNN
F 2 "" H 3100 1050 50  0001 C CNN
F 3 "" H 3100 1050 50  0001 C CNN
	1    3100 1050
	0    1    1    0   
$EndComp
Text GLabel 3100 1150 2    50   Input ~ 0
RST
Text GLabel 3100 1650 2    50   Input ~ 0
A7
Text GLabel 3100 1750 2    50   Input ~ 0
A6
Text GLabel 3100 1850 2    50   Input ~ 0
A5
Text GLabel 3100 2450 2    50   Input ~ 0
C15
Text GLabel 3100 2550 2    50   Input ~ 0
C14
Text GLabel 3100 2650 2    50   Input ~ 0
C13
Wire Wire Line
	1850 850  1950 850 
Wire Wire Line
	1950 950  1850 950 
Wire Wire Line
	1850 1050 1950 1050
Wire Wire Line
	1950 1150 1850 1150
Wire Wire Line
	1850 1250 1950 1250
Wire Wire Line
	1950 1350 1850 1350
Wire Wire Line
	1850 1450 1950 1450
Wire Wire Line
	1950 1550 1850 1550
Wire Wire Line
	1850 1650 1950 1650
Wire Wire Line
	1950 1750 1850 1750
Wire Wire Line
	1850 1850 1950 1850
Wire Wire Line
	1950 1950 1850 1950
Wire Wire Line
	1850 2050 1950 2050
Wire Wire Line
	1950 2150 1850 2150
Wire Wire Line
	1850 2250 1950 2250
Wire Wire Line
	1950 2350 1850 2350
Wire Wire Line
	1850 2450 1950 2450
Wire Wire Line
	1950 2550 1850 2550
Wire Wire Line
	1850 2650 1950 2650
Wire Wire Line
	1950 2750 1850 2750
Wire Wire Line
	3000 2750 3100 2750
Wire Wire Line
	3100 2650 3000 2650
Wire Wire Line
	3000 2550 3100 2550
Wire Wire Line
	3100 2450 3000 2450
Wire Wire Line
	3000 2350 3100 2350
Wire Wire Line
	3100 2250 3000 2250
Wire Wire Line
	3000 2150 3100 2150
Wire Wire Line
	3100 2050 3000 2050
Wire Wire Line
	3000 1950 3100 1950
Wire Wire Line
	3100 1850 3000 1850
Wire Wire Line
	3000 1750 3100 1750
Wire Wire Line
	3100 1650 3000 1650
Wire Wire Line
	3000 1550 3100 1550
Wire Wire Line
	3100 1450 3000 1450
Wire Wire Line
	3000 1350 3100 1350
Wire Wire Line
	3100 1250 3000 1250
Wire Wire Line
	3000 1150 3100 1150
Wire Wire Line
	3100 1050 3000 1050
Wire Wire Line
	3000 950  3100 950 
Wire Wire Line
	3100 850  3000 850 
$Comp
L power:PWR_FLAG #FLG0101
U 1 1 5C7BBCE9
P 10400 6150
F 0 "#FLG0101" H 10400 6225 50  0001 C CNN
F 1 "PWR_FLAG" H 10400 6324 50  0000 C CNN
F 2 "" H 10400 6150 50  0001 C CNN
F 3 "~" H 10400 6150 50  0001 C CNN
	1    10400 6150
	1    0    0    -1  
$EndComp
$Comp
L power:PWR_FLAG #FLG0102
U 1 1 5C7BBD5F
P 10850 6150
F 0 "#FLG0102" H 10850 6225 50  0001 C CNN
F 1 "PWR_FLAG" H 10850 6324 50  0000 C CNN
F 2 "" H 10850 6150 50  0001 C CNN
F 3 "~" H 10850 6150 50  0001 C CNN
	1    10850 6150
	1    0    0    -1  
$EndComp
$Comp
L power:GND #PWR0101
U 1 1 5C7BBDA9
P 10400 6250
F 0 "#PWR0101" H 10400 6000 50  0001 C CNN
F 1 "GND" H 10405 6077 50  0001 C CNN
F 2 "" H 10400 6250 50  0001 C CNN
F 3 "" H 10400 6250 50  0001 C CNN
	1    10400 6250
	1    0    0    -1  
$EndComp
$Comp
L power:+3.3V #PWR0102
U 1 1 5C7BBF04
P 10850 6250
F 0 "#PWR0102" H 10850 6100 50  0001 C CNN
F 1 "+3.3V" H 10865 6423 50  0000 C CNN
F 2 "" H 10850 6250 50  0001 C CNN
F 3 "" H 10850 6250 50  0001 C CNN
	1    10850 6250
	-1   0    0    1   
$EndComp
$Comp
L power:PWR_FLAG #FLG0103
U 1 1 5C7BC05F
P 9950 6150
F 0 "#FLG0103" H 9950 6225 50  0001 C CNN
F 1 "PWR_FLAG" H 9950 6324 50  0000 C CNN
F 2 "" H 9950 6150 50  0001 C CNN
F 3 "~" H 9950 6150 50  0001 C CNN
	1    9950 6150
	1    0    0    -1  
$EndComp
$Comp
L power:+5V #PWR0103
U 1 1 5C7BC20E
P 9950 6250
F 0 "#PWR0103" H 9950 6100 50  0001 C CNN
F 1 "+5V" H 9965 6423 50  0000 C CNN
F 2 "" H 9950 6250 50  0001 C CNN
F 3 "" H 9950 6250 50  0001 C CNN
	1    9950 6250
	-1   0    0    1   
$EndComp
Wire Wire Line
	9950 6250 9950 6150
Wire Wire Line
	10400 6150 10400 6250
Wire Wire Line
	10850 6250 10850 6150
Text GLabel 3100 2750 2    50   Input ~ 0
VBAT
Text GLabel 6250 2750 2    50   Input ~ 0
VBAT
$Comp
L Device:Battery_Cell BT1
U 1 1 5C387484
P 7700 4550
F 0 "BT1" H 7818 4646 50  0000 L CNN
F 1 "Battery_Cell" V 7550 4400 50  0000 L CNN
F 2 "Battery:BatteryHolder_LINX_BAT-HLD-012-SMT" V 7700 4610 50  0001 C CNN
F 3 "BAT-HLD-012-SMT" V 7700 4610 50  0001 C CNN
	1    7700 4550
	1    0    0    -1  
$EndComp
$Comp
L power:GND #PWR017
U 1 1 5C3875F5
P 7700 4750
F 0 "#PWR017" H 7700 4500 50  0001 C CNN
F 1 "GND" H 7705 4577 50  0001 C CNN
F 2 "" H 7700 4750 50  0001 C CNN
F 3 "" H 7700 4750 50  0001 C CNN
	1    7700 4750
	1    0    0    -1  
$EndComp
Wire Wire Line
	7700 4750 7700 4650
Text GLabel 7700 4200 1    50   Input ~ 0
VBAT
Wire Wire Line
	7700 4200 7700 4350
$Comp
L Mechanical:MountingHole H4
U 1 1 5C3D4F3B
P 8250 6150
F 0 "H4" H 8350 6196 50  0000 L CNN
F 1 "MountingHole" H 8350 6105 50  0000 L CNN
F 2 "MountingHole:MountingHole_3.2mm_M3_Pad_Via" H 8250 6150 50  0001 C CNN
F 3 "" H 8250 6150 50  0001 C CNN
	1    8250 6150
	1    0    0    -1  
$EndComp
$Comp
L Mechanical:MountingHole H3
U 1 1 5C3D500F
P 8250 6000
F 0 "H3" H 8350 6046 50  0000 L CNN
F 1 "MountingHole" H 8350 5955 50  0000 L CNN
F 2 "MountingHole:MountingHole_3.2mm_M3_Pad_Via" H 8250 6000 50  0001 C CNN
F 3 "" H 8250 6000 50  0001 C CNN
	1    8250 6000
	1    0    0    -1  
$EndComp
$Comp
L Mechanical:MountingHole H2
U 1 1 5C3D5079
P 8250 5850
F 0 "H2" H 8350 5896 50  0000 L CNN
F 1 "MountingHole" H 8350 5805 50  0000 L CNN
F 2 "MountingHole:MountingHole_3.2mm_M3_Pad_Via" H 8250 5850 50  0001 C CNN
F 3 "" H 8250 5850 50  0001 C CNN
	1    8250 5850
	1    0    0    -1  
$EndComp
$Comp
L Mechanical:MountingHole H1
U 1 1 5C3D50D3
P 8250 5700
F 0 "H1" H 8350 5746 50  0000 L CNN
F 1 "MountingHole" H 8350 5655 50  0000 L CNN
F 2 "MountingHole:MountingHole_3.2mm_M3_Pad_Via" H 8250 5700 50  0001 C CNN
F 3 "" H 8250 5700 50  0001 C CNN
	1    8250 5700
	1    0    0    -1  
$EndComp
$Comp
L power:GND #PWR019
U 1 1 5C3D5133
P 8100 6300
F 0 "#PWR019" H 8100 6050 50  0001 C CNN
F 1 "GND" H 8105 6127 50  0001 C CNN
F 2 "" H 8100 6300 50  0001 C CNN
F 3 "" H 8100 6300 50  0001 C CNN
	1    8100 6300
	1    0    0    -1  
$EndComp
Wire Wire Line
	8250 6150 8100 6150
Wire Wire Line
	8100 6150 8100 6300
Wire Wire Line
	8250 6000 8100 6000
Wire Wire Line
	8100 6000 8100 6150
Connection ~ 8100 6150
Wire Wire Line
	8250 5850 8100 5850
Wire Wire Line
	8100 5850 8100 6000
Connection ~ 8100 6000
Wire Wire Line
	8600 1550 9150 1550
Wire Wire Line
	8300 1550 8600 1550
Connection ~ 8600 1550
Wire Wire Line
	8850 1250 8850 1450
Connection ~ 8850 1450
Wire Wire Line
	9150 2850 8600 2850
Wire Wire Line
	8600 2850 8600 1550
Wire Wire Line
	9150 2950 8850 2950
Wire Wire Line
	8850 2950 8850 1450
Wire Wire Line
	10050 1650 10050 1900
Wire Wire Line
	10050 1900 9550 1900
Connection ~ 10050 1650
Wire Wire Line
	5450 4100 5450 4050
Wire Wire Line
	5450 4050 4900 4050
Wire Wire Line
	4900 4050 4900 4000
Wire Wire Line
	5050 4300 4900 4300
Wire Wire Line
	4900 4300 4900 4050
Connection ~ 4900 4050
Wire Wire Line
	5050 4400 4900 4400
Wire Wire Line
	4900 4400 4900 4300
Connection ~ 4900 4300
Wire Wire Line
	8250 5700 8100 5700
Wire Wire Line
	8100 5700 8100 5850
Connection ~ 8100 5850
$Comp
L Device:R R5
U 1 1 5C928ADB
P 4500 7150
F 0 "R5" V 4600 7100 50  0000 L CNN
F 1 "330R" V 4400 7050 50  0000 L CNN
F 2 "Resistor_SMD:R_1206_3216Metric" V 4430 7150 50  0001 C CNN
F 3 "AC1206FR-10390RL" H 4500 7150 50  0001 C CNN
	1    4500 7150
	1    0    0    -1  
$EndComp
$Comp
L Device:R R10
U 1 1 5C9354AB
P 5300 7150
F 0 "R10" V 5400 7100 50  0000 L CNN
F 1 "330R" V 5200 7050 50  0000 L CNN
F 2 "Resistor_SMD:R_1206_3216Metric" V 5230 7150 50  0001 C CNN
F 3 "AC1206FR-10390RL" H 5300 7150 50  0001 C CNN
	1    5300 7150
	1    0    0    -1  
$EndComp
Wire Wire Line
	5300 7400 5300 7300
$Comp
L Device:R R11
U 1 1 5C941FCC
P 6100 7150
F 0 "R11" V 6200 7100 50  0000 L CNN
F 1 "330R" V 6000 7050 50  0000 L CNN
F 2 "Resistor_SMD:R_1206_3216Metric" V 6030 7150 50  0001 C CNN
F 3 "AC1206FR-10390RL" H 6100 7150 50  0001 C CNN
	1    6100 7150
	1    0    0    -1  
$EndComp
Wire Wire Line
	6100 7400 6100 7300
$Comp
L Device:R R4
U 1 1 5C94EC44
P 3700 7150
F 0 "R4" V 3800 7100 50  0000 L CNN
F 1 "330R" V 3600 7050 50  0000 L CNN
F 2 "Resistor_SMD:R_1206_3216Metric" V 3630 7150 50  0001 C CNN
F 3 "AC1206FR-10390RL" H 3700 7150 50  0001 C CNN
	1    3700 7150
	1    0    0    -1  
$EndComp
Wire Wire Line
	4500 7400 4500 7300
Wire Wire Line
	3700 7400 3700 7300
Wire Wire Line
	4100 6950 3700 6950
Wire Wire Line
	3700 6950 3700 7000
Connection ~ 4100 6950
Wire Wire Line
	4100 6950 4100 6900
Wire Wire Line
	4900 6950 4500 6950
Wire Wire Line
	4500 6950 4500 7000
Connection ~ 4900 6950
Wire Wire Line
	4900 6950 4900 6900
Wire Wire Line
	5700 6950 5300 6950
Wire Wire Line
	5300 6950 5300 7000
Connection ~ 5700 6950
Wire Wire Line
	5700 6950 5700 6900
Wire Wire Line
	6500 6950 6100 6950
Wire Wire Line
	6100 6950 6100 7000
Connection ~ 6500 6950
Wire Wire Line
	6500 6950 6500 6900
$Comp
L power:+3.3V #PWR09
U 1 1 5C9C57F4
P 3700 7400
F 0 "#PWR09" H 3700 7250 50  0001 C CNN
F 1 "+3.3V" H 3715 7573 50  0000 C CNN
F 2 "" H 3700 7400 50  0001 C CNN
F 3 "" H 3700 7400 50  0001 C CNN
	1    3700 7400
	-1   0    0    1   
$EndComp
$Comp
L power:+3.3V #PWR036
U 1 1 5C9C5A16
P 4500 7400
F 0 "#PWR036" H 4500 7250 50  0001 C CNN
F 1 "+3.3V" H 4515 7573 50  0000 C CNN
F 2 "" H 4500 7400 50  0001 C CNN
F 3 "" H 4500 7400 50  0001 C CNN
	1    4500 7400
	-1   0    0    1   
$EndComp
$Comp
L power:+3.3V #PWR037
U 1 1 5C9C5A67
P 5300 7400
F 0 "#PWR037" H 5300 7250 50  0001 C CNN
F 1 "+3.3V" H 5315 7573 50  0000 C CNN
F 2 "" H 5300 7400 50  0001 C CNN
F 3 "" H 5300 7400 50  0001 C CNN
	1    5300 7400
	-1   0    0    1   
$EndComp
$Comp
L power:+3.3V #PWR038
U 1 1 5C9C5AB8
P 6100 7400
F 0 "#PWR038" H 6100 7250 50  0001 C CNN
F 1 "+3.3V" H 6115 7573 50  0000 C CNN
F 2 "" H 6100 7400 50  0001 C CNN
F 3 "" H 6100 7400 50  0001 C CNN
	1    6100 7400
	-1   0    0    1   
$EndComp
Wire Notes Line
	3500 7650 3900 7650
Wire Notes Line
	3900 7650 3900 6200
Wire Notes Line
	3900 6200 3500 6200
Wire Notes Line
	3500 6200 3500 7650
Text Notes 3550 6500 0    50   ~ 0
DO\nNOT \nMOUNT
Text Notes 4100 6100 0    50   ~ 0
IF YOU WANT TO USE NEGATIVE LOGIC TO DRIVE LEDS,\nREMOVE R6, R7, R8 AND R9, REVERSE LEDS WHEN\nMOUNTING AND ADD R4, R5, R10 AND R11.
Wire Notes Line
	4300 7650 4700 7650
Wire Notes Line
	4700 7650 4700 6200
Wire Notes Line
	4700 6200 4300 6200
Wire Notes Line
	4300 6200 4300 7650
Wire Notes Line
	5100 7650 5500 7650
Wire Notes Line
	5500 7650 5500 6200
Wire Notes Line
	5500 6200 5100 6200
Wire Notes Line
	5100 6200 5100 7650
Wire Notes Line
	5900 7650 6300 7650
Wire Notes Line
	6300 7650 6300 6200
Wire Notes Line
	6300 6200 5900 6200
Wire Notes Line
	5900 6200 5900 7650
Text Notes 4350 6500 0    50   ~ 0
DO\nNOT \nMOUNT
Text Notes 5150 6500 0    50   ~ 0
DO\nNOT \nMOUNT
Text Notes 5950 6500 0    50   ~ 0
DO\nNOT \nMOUNT
$EndSCHEMATC
